{
  "id": "4b184c01.705134",
  "type": "subflow",
  "name": "Subflow 1",
  "info": "",
  "in": [
    {
      "x": 520,
      "y": 60,
      "wires": [
        {
          "id": "85cb9edb.33e02"
        }
      ]
    }
  ],
  "out": [
    {
      "x": 800,
      "y": 60,
      "wires": [
        {
          "id": "85cb9edb.33e02",
          "port": 0
        }
      ]
    }
  ],
  "flow": [
    {
      "id": "85cb9edb.33e02",
      "type": "template",
      "z": "4b184c01.705134",
      "name": "Set reply",
      "field": "payload",
      "fieldType": "msg",
      "format": "text",
      "template": "Give me the track id",
      "x": 660,
      "y": 60,
      "wires": [
        []
      ]
    }
  ]
}