{
  "id": "5a4f64cf.e3bb9c",
  "type": "subflow",
  "name": "Obtain status",
  "info": "",
  "in": [
    {
      "x": 220,
      "y": 60,
      "wires": [
        {
          "id": "8a6d11e0.6d1a8"
        }
      ]
    }
  ],
  "out": [
    {
      "x": 520,
      "y": 60,
      "wires": [
        {
          "id": "8a6d11e0.6d1a8",
          "port": 0
        }
      ]
    }
  ],
  "flow": [
    {
      "id": "8a6d11e0.6d1a8",
      "type": "function",
      "z": "5a4f64cf.e3bb9c",
      "name": "Obtain status",
      "func": "var _status = global.get('status_'+msg.payload.chatId) || {\n    name : 'default'\n};\nmsg._status = _status;\nmsg._chatId = msg.payload.chatId;\nreturn msg;",
      "outputs": 1,
      "noerr": 0,
      "x": 370,
      "y": 60,
      "wires": [
        []
      ]
    }
  ]
}