{
  "id": "5c9367d5.fa2918",
  "type": "subflow",
  "name": "Subflow 2",
  "info": "",
  "in": [
    {
      "x": 520,
      "y": 120,
      "wires": [
        {
          "id": "4ed6c7d1.8abe38"
        }
      ]
    }
  ],
  "out": [
    {
      "x": 800,
      "y": 120,
      "wires": [
        {
          "id": "4ed6c7d1.8abe38",
          "port": 0
        }
      ]
    }
  ],
  "flow": [
    {
      "id": "4ed6c7d1.8abe38",
      "type": "template",
      "z": "5c9367d5.fa2918",
      "name": "Set reply",
      "field": "payload",
      "fieldType": "msg",
      "format": "handlebars",
      "template": "I'm tracking your package {{payload.entities.track_id}}!",
      "x": 660,
      "y": 120,
      "wires": [
        []
      ]
    }
  ]
}