{
  "type": "tab",
  "id": "66cda0f9.8e7d5",
  "label": "Follow Up",
  "flow": [
    {
      "id": "fa2ea73e.283cd8",
      "type": "inject",
      "z": "66cda0f9.8e7d5",
      "name": "",
      "topic": "",
      "payload": "",
      "payloadType": "date",
      "repeat": "",
      "crontab": "",
      "once": false,
      "x": 140,
      "y": 80,
      "wires": [
        []
      ]
    }
  ]
}