{
  "id": "cfd79c25.63d31",
  "type": "subflow",
  "name": "Check is delivered",
  "info": "",
  "in": [
    {
      "x": 40,
      "y": 60,
      "wires": [
        {
          "id": "13d12c70.188374"
        }
      ]
    }
  ],
  "out": [
    {
      "x": 260,
      "y": 60,
      "wires": [
        {
          "id": "13d12c70.188374",
          "port": 0
        }
      ]
    }
  ],
  "flow": [
    {
      "id": "13d12c70.188374",
      "type": "function",
      "z": "cfd79c25.63d31",
      "name": "",
      "func": "msg.payload = {\n    message : msg.packageStatus === 'Delivered'\n                ? 'deliver'\n                : ( msg.packageStatus === 'Driver at the Delivery'\n                    ? 'give_delivery_location_out_for_delivery'\n                    : 'give_delivery_location_not_out_yet')\n}\nreturn msg;",
      "outputs": 1,
      "noerr": 0,
      "x": 150,
      "y": 60,
      "wires": [
        []
      ]
    }
  ]
}